…
```
## Warning: Column `sampleNames` joining character vector and factor, coercing
## into character vector
```

```r
pDat_final
```

```
## # A tibble: 499 x 28
##    sampleNames Alternate_ID GSE_Accession Cohort_owner Cohort_ID Sex  
##    <chr>       <chr>        <chr>         <fct>        <chr>     <fct>
##  1 DeID2       DeID2        GSE70453      Michels      C1        M    
##  2 DeID23      DeID23       GSE70453      Michels      C1        M    
##  3 DeID40      DeID40       GSE70453      Michels      C1        M    
##  4 DeID14      DeID14       GSE70453      Michels      C1        F    
##  5 DeID15      DeID15       GSE70453      Michels      C1        F    
##  6 DeID48      DeID48       GSE70453      Michels      C1        F    
##  7 DeID49      DeID49       GSE70453      Michels      C1        F    
##  8 DeID56      DeID56       GSE70453      Michels      C1        F    
##  9 DeID57      DeID57       GSE70453      Michels      C1        F    
## 10 DeID60      DeID60       GSE70453      Michels      C1        F    
## # ... with 489 more rows, and 22 more variables:
## #   Self_reported_ethnicity <fct>, Predicted_ethnicity <chr>,
## #   Prob_African <dbl>, Prob_Asian <dbl>, Prob_Caucasian <dbl>,
## #   Highest_Prob <dbl>, AIMs_Coordinate1 <dbl>, AIMs_Coordinate2 <dbl>,
## #   AIMs_Coordinate3 <dbl>, Condition <chr>, PE <fct>, Plate <fct>,
## #   GA <dbl>, Row <chr>, Column <chr>, Slide <fct>,
## #   MaternalEthnicity <chr>, IUGR <fct>, BW <chr>, BW_SD <chr>,
## #   ndet <dbl>, meanSScor <dbl>
```
…
