04_validation_cohort
…
pDat_C6_final<- pDat_C6_final %>% 
  left_join(pDat_C1_C5_final %>% select(sampleNames, Alternate_ID, GSE_Accession,
                                        contains('Cohort'))) %>%
  select(sampleNames, Alternate_ID:Cohort_ID, Self_reported_ethnicity, Predicted_ethnicity1, 
         Predicted_ethnicity2, contains('Prob', F), contains('AIMs'), Sample_Plate:Site)

## Joining, by = "sampleNames"

pDat_C6_final

## # A tibble: 37 x 28
##    sampleNames Alternate_ID        GSE_Accession    Cohort_owner Cohort_ID
##    <chr>       <chr>               <chr>            <fct>        <chr>    
##  1 PM112       GSM1931569,GSM2674~ GSE74738,GSE100~ Robinson     C5       
##  2 PM114       GSM1931570,GSM2674~ GSE74738,GSE100~ Robinson     C5       
##  3 PM116       GSM2674415          GSE100197        Robinson     C5       
##  4 PM12        GSM2674416          GSE100197        Robinson     C5       
##  5 PM120       GSM1931571,GSM2674~ GSE74738,GSE100~ Robinson     C5       
##  6 PM123       GSM2674438          GSE100197        Robinson     C5       
##  7 PM129       GSM2674417          GSE100197        Robinson     C5       
##  8 PM130       GSM2674439          GSE100197        Robinson     C5       
##  9 PM136       GSM1931575,GSM2674~ GSE74738,GSE100~ Robinson     C5       
## 10 PM139       <NA>                <NA>             <NA>         <NA>     
## # ... with 27 more rows, and 23 more variables:
## #   Self_reported_ethnicity <fct>, Predicted_ethnicity1 <fct>,
## #   Predicted_ethnicity2 <chr>, Highest_Prob <dbl>, Prob_African <dbl>,
## #   Prob_Asian <dbl>, Prob_Caucasian <dbl>, AIMs_C1 <dbl>, AIMs_C2 <dbl>,
## #   AIMs_C3 <dbl>, Sample_Plate <chr>, Batch <chr>, Sentrix_ID <dbl>,
## #   Sentrix_Position <chr>, rownames <chr>, Replicate_ID <chr>,
## #   Replicate_Num <chr>, NAs_betas <dbl>, detp_01 <dbl>,
## #   bc_lessthan_3 <dbl>, Poor_quality_probes <dbl>, Villi_site <chr>,
## #   Site <fct>
…
